*[offs] 0 [text] Extreme Tux Racer [font] 0 [size] 7 [col] 1
*[offs] 50 [text] Version 0.8.1 [font] 0 [size] 3 [col] 0
*[offs] 40 [text] Some courses may have been modified from their [font] 0 [size] 2 [col] 0
*[offs] 20 [text] original versions to fit the requirements of the game. [font] 0 [size] 2 [col] 0

*[offs] 40 [text] The ETR Team: [font] 0 [size] 4 [col] 1
*[offs] 30 [text] Steven Bell [font] 0 [size] 3 [col] 0
*[offs] 30 [text] Kristian Picon [font] 0 [size] 3 [col] 0
*[offs] 30 [text] Nicosmos [font] 0 [size] 3 [col] 0
*[offs] 30 [text] R. Niehoff [font] 0 [size] 3 [col] 0
*[offs] 30 [text] Philipp Kloke [font] 0 [size] 3 [col] 0
*[offs] 30 [text] Marko Lindqvist [font] 0 [size] 3 [col] 0

*[offs] 40 [text] Authors of Tux Racer: [font] 0 [size] 4 [col] 1
*[offs] 30 [text] Eric Hall [font] 0 [size] 3 [col] 0
*[offs] 30 [text] Jasmin Patry [font] 0 [size] 3 [col] 0
*[offs] 30 [text] Mark Riddell [font] 0 [size] 3 [col] 0
*[offs] 30 [text] Patrick Gilhuly [font] 0 [size] 3 [col] 0
*[offs] 30 [text] Rick Knowles [font] 0 [size] 3 [col] 0
*[offs] 30 [text] Vincent Ma [font] 0 [size] 3 [col] 0

*[offs] 40 [text] Music: [font] 0 [size] 4 [col] 1
*[offs] 30 [text] Grady O'Connell [font] 0 [size] 3 [col] 0
*[offs] 30 [text] Kristian Picon [font] 0 [size] 3 [col] 0
*[offs] 30 [text] Karl Schroeder [font] 0 [size] 3 [col] 0
*[offs] 30 [text] Joseph Toscano [font] 0 [size] 3 [col] 0

*[offs] 40 [text] Graphics: [font] 0 [size] 4 [col] 1
*[offs] 30 [text] Nicosmos (Logo, HUD and Interface) [font] 0 [size] 3 [col] 0
*[offs] 30 [text] Kristian Picon (Objects, Skyboxes, Characters) [font] 0 [size] 3 [col] 0
*[offs] 30 [text] Daniel Poeira and K. Picon (Papercuts Font) [font] 0 [size] 3 [col] 0

*[offs] 40 [text] Thanks To: [font] 0 [size] 4 [col] 1
*[offs] 30 [text] Ranger (for hosting the website) [font] 0 [size] 3 [col] 0
*[offs] 30 [text] Slythfox (for making the website) [font] 0 [size] 3 [col] 0
*[offs] 30 [text] The Course Creators [font] 0 [size] 3 [col] 0
*[offs] 30 [text] Larry Ewing (creator of Tux) [font] 0 [size] 3 [col] 0
*[offs] 30 [text] Ulrich Thatcher (quadtree algorithm)[font] 0 [size] 3 [col] 0
*[offs] 30 [text] Matthias Mailänder (appdata file)[font] 0 [size] 3 [col] 0

*[offs] 40 [text] Translations: [font] 0 [size] 4 [col] 1
*[offs] 30 [text] Czech: Pavel Borecki [font] 0 [size] 3 [col] 0
*[offs] 30 [text] Finnish: Marko Lindqvist [font] 0 [size] 3 [col] 0
*[offs] 30 [text] French: Sylvain St-Amand (SSTSylvain) and Syl [font] 0 [size] 3 [col] 0
*[offs] 30 [text] German: Philipp Kloke [font] 0 [size] 3 [col] 0
*[offs] 30 [text] Swedish: Jonatan Nyberg [font] 0 [size] 3 [col] 0
*[offs] 30 [text] Esperanto: Viliam Bur [font] 0 [size] 3 [col] 0
*[offs] 30 [text] Dutch: Rogonow [font] 0 [size] 3 [col] 0
*[offs] 30 [text] Romanian: fastdudecom [font] 0 [size] 3 [col] 0
*[offs] 30 [text] Translators up to version 0.6.0 unknown [font] 0 [size] 3 [col] 0

*[offs] 50 [text] Copyright © 1999 - 2000 Jasmin F. Patry[font] 0 [size] 3 [col] 0
*[offs] 25 [text] Copyright © 2011-2021 The Extreme Tux Racer Team[font] 0 [size] 3 [col] 0
*[offs] 40 [text] on the web at: https://sourceforge.net/projects/extremetuxracer/ [font] 0 [size] 3 [col] 0
*[offs] 30 [text] Use of the name "Extreme Tux Racer" is granted to any forks or continuations. [font] 0 [size] 2 [col] 0
*[offs] 50 [text] ----------------------- [font] 0 [size] 3 [col] 0
*[offs] 30 [text] This program is distributed in the hope that it will be useful, [font] 1 [size] 2 [col] 0
*[offs] 20 [text] but WITHOUT ANY WARRANTY; without even the implied warranty of [font] 1 [size] 2 [col] 0
*[offs] 20 [text] MERCHANTABILITY or FITNESS FOR A PARTICULAR PURPOSE.  See the [font] 1 [size] 2 [col] 0
*[offs] 20 [text] GNU General Public License for more details. [font] 1 [size] 2 [col] 0